[
  "hellhole/2xkross2.lev",
  "hellhole/4squares.lev",
  "hellhole/Cathode_1.lev",
  "hellhole/Cheese.lev",
  "hellhole/DUEL.LEV",
  "hellhole/HUSK.LEV",
  "hellhole/INDIA2.LEV",
  "hellhole/Likwid.lev",
  "hellhole/MITH.lev",
  "hellhole/Memory.lev",
  "hellhole/Owl-2.lev",
  "hellhole/Owl-3.lev",
  "hellhole/Saloon.lev",
  "hellhole/Sancti.lev",
  "hellhole/Simple2.lev",
  "hellhole/TEMPLE27.LEV",
  "hellhole/angel.lev",
  "hellhole/arena711.lev",
  "hellhole/arkham.lev",
  "hellhole/atr.lev",
  "hellhole/badger.lev",
  "hellhole/bj4wilq.lev",
  "hellhole/cathode.lev",
  "hellhole/deathruw.lev",
  "hellhole/fallout2.lev",
  "hellhole/ghostrider_platforms.lev",
  "hellhole/izbla.lev",
  "hellhole/panther-s.lev",
  "hellhole/pokol2.lev",
  "hellhole/pyramid_1.lev",
  "hellhole/qflight.lev",
  "hellhole/tune-l.lev",
  "hellhole/unite.lev"
]