[
  "hellhole/AirCastleZ.lev",
  "hellhole/Lost Base.lev",
  "hellhole/Mines.lev",
  "hellhole/fun.lev",
  "hellhole/Cross Walls.lev",
  "hellhole/Elegant.lev",
  "hellhole/ZIMM.LEV",
  "hellhole/bunnycat.lev",
  "hellhole/crazy_1.lev",
  "hellhole/death.lev",
  "hellhole/jungle2.lev",
  "hellhole/king.lev",
  "hellhole/$MUMEY$.LEV",
  "hellhole/007.lev",
  "hellhole/2BASES.LEV",
  "hellhole/@AT@.LEV",
  "hellhole/Ak22.lev",
  "hellhole/BATTLEDM.LEV",
  "hellhole/BIGHOUSE.LEV",
  "hellhole/Block.lev",
  "hellhole/CASTLE_1.LEV",
  "hellhole/CTFArena_1.lev",
  "hellhole/CVICISTE.LEV",
  "hellhole/Carnival.lev",
  "hellhole/Chaos I.LEV",
  "hellhole/Church.lev",
  "hellhole/City.lev",
  "hellhole/Commando.lev",
  "hellhole/DIRTFACT.LEV",
  "hellhole/DIRTHOLE.LEV",
  "hellhole/Elevate.lev",
  "hellhole/FORTFAN.LEV",
  "hellhole/Fallout.lev",
  "hellhole/Fight Eyes.lev",
  "hellhole/Forest.lev",
  "hellhole/GreyFort.lev",
  "hellhole/HELLRAIN.LEV",
  "hellhole/Haunted.lev",
  "hellhole/HighRock.lev",
  "hellhole/Hotel 2.lev",
  "hellhole/Hotel.lev",
  "hellhole/Hq.lev",
  "hellhole/Ice Station.lev",
  "hellhole/Interlierobattles.lev",
  "hellhole/JIPEE.LEV",
  "hellhole/JUSSI2.LEV",
  "hellhole/Jnglenight.lev",
  "hellhole/JoeMac.lev",
  "hellhole/Joes2.lev",
  "hellhole/KUBLA.LEV",
  "hellhole/LEVaYTYS.LEV",
  "hellhole/Light.lev",
  "hellhole/MarcMaze.lev",
  "hellhole/Metro.lev",
  "hellhole/Mine.lev",
  "hellhole/Missile.lev",
  "hellhole/Mission6.lev",
  "hellhole/Mob.lev",
  "hellhole/Mofoc2.lev",
  "hellhole/MoonTown.lev",
  "hellhole/Moonbase.lev",
  "hellhole/Mountain_2.lev",
  "hellhole/Mt.Kewl.lev",
  "hellhole/NAABRID2.LEV",
  "hellhole/NUKESITE.lev",
  "hellhole/Neon.lev",
  "hellhole/Nfactory.lev",
  "hellhole/Nofly.lev",
  "hellhole/Paras2.lev",
  "hellhole/Pleasegod.lev",
  "hellhole/SPcsupp.lev",
  "hellhole/StarTown.lev",
  "hellhole/Supply depot.lev",
  "hellhole/TOWERS_1.LEV",
  "hellhole/The Base.lev",
  "hellhole/The D11-Base.lev",
  "hellhole/The arena.lev",
  "hellhole/ToraBora.lev",
  "hellhole/Training_1.lev",
  "hellhole/Tunnels.LEV",
  "hellhole/Twister.lev",
  "hellhole/UA-FORT.LEV",
  "hellhole/UA-METRO.LEV",
  "hellhole/VERSION.LEV",
  "hellhole/WW2.LEV",
  "hellhole/WWI.lev",
  "hellhole/Warehaus.lev",
  "hellhole/Warforts.lev",
  "hellhole/Wormhouse.lev",
  "hellhole/adelanto.lev",
  "hellhole/base1.lev",
  "hellhole/building_3.lev",
  "hellhole/castle2_1.lev",
  "hellhole/castle_2.lev",
  "hellhole/castle_3.lev",
  "hellhole/castlez.lev",
  "hellhole/cow.lev",
  "hellhole/crazy.lev",
  "hellhole/downtown.lev",
  "hellhole/esko.lev",
  "hellhole/gaper.lev",
  "hellhole/gard towers.lev",
  "hellhole/hornillo.lev",
  "hellhole/house2.lev",
  "hellhole/house_2.lev",
  "hellhole/impossbl.lev",
  "hellhole/jungle1.lev",
  "hellhole/keep.lev",
  "hellhole/kgivler2.lev",
  "hellhole/kgivler5.lev",
  "hellhole/klex.lev",
  "hellhole/lb_vulcn.lev",
  "hellhole/led.lev",
  "hellhole/lego.lev",
  "hellhole/lift.lev",
  "hellhole/mine_1.lev",
  "hellhole/mining.lev",
  "hellhole/misile.lev",
  "hellhole/mount ki.lev",
  "hellhole/munchoz.lev",
  "hellhole/neighbours.lev",
  "hellhole/oilraft.lev",
  "hellhole/place.lev",
  "hellhole/planetz.lev",
  "hellhole/podzemi.lev",
  "hellhole/prison.lev",
  "hellhole/psycho.lev",
  "hellhole/raid.lev",
  "hellhole/rebels.lev",
  "hellhole/rockar.lev",
  "hellhole/rockar3.lev",
  "hellhole/rooms.lev",
  "hellhole/scity.lev",
  "hellhole/scud.lev",
  "hellhole/serial.lev",
  "hellhole/sfactory.lev",
  "hellhole/shroomz.lev",
  "hellhole/splat.lev",
  "hellhole/storage.lev",
  "hellhole/stygg.lev",
  "hellhole/style.lev",
  "hellhole/sun.lev",
  "hellhole/takta.lev",
  "hellhole/treehaus.lev",
  "hellhole/tunnel.lev",
  "hellhole/tunnel_1.lev",
  "hellhole/ultrar.lev",
  "hellhole/ulvenstn.lev",
  "hellhole/war Bubbles of doom.lev",
  "hellhole/warfield.lev",
  "hellhole/weekyear.lev",
  "hellhole/winning cup.lev",
  "hellhole/winter.lev",
  "hellhole/winter_1.lev",
  "hellhole/wormatras.lev",
  "hellhole/aqueducts.lev",
  "hellhole/canyon.lev",
  "hellhole/gears.lev",
  "hellhole/illyria.lev",
  "hellhole/stronghold.lev",
  "hellhole/2worm4ya.lev",
  "hellhole/AfricanBonanza2.lev",
  "hellhole/Bunkier2.lev",
  "hellhole/COOL_1.LEV",
  "hellhole/Domes.lev",
  "hellhole/Dropzone.lev",
  "hellhole/DvDmanDT.lev",
  "hellhole/FORTISAR.LEV",
  "hellhole/Fort2.lev",
  "hellhole/LABRIN.LEV",
  "hellhole/Laardi2.lev",
  "hellhole/Labra.lev",
  "hellhole/LodeRun.LEV",
  "hellhole/LodeRun2.lev",
  "hellhole/Mountain_1.lev",
  "hellhole/MyLevel1.lev",
  "hellhole/MyLevel3.lev",
  "hellhole/Nfuel.lev",
  "hellhole/ROCKBASE.LEV",
  "hellhole/Ramm.lev",
  "hellhole/RealTime.lev",
  "hellhole/ST-1.lev",
  "hellhole/TheMine.lev",
  "hellhole/Warfare.lev",
  "hellhole/albatros.lev",
  "hellhole/amplify.lev",
  "hellhole/crazy_2.lev",
  "hellhole/face.lev",
  "hellhole/flame.lev",
  "hellhole/forrest.lev",
  "hellhole/galleon.lev",
  "hellhole/holy.lev",
  "hellhole/kulon-q8.lev",
  "hellhole/labyrint.lev",
  "hellhole/lavina.lev",
  "hellhole/lvl0003.lev",
  "hellhole/marocko6.lev",
  "hellhole/mega.lev",
  "hellhole/park8.lev",
  "hellhole/planetx.lev",
  "hellhole/qaverns.lev",
  "hellhole/rainyday.lev",
  "hellhole/serpent.lev",
  "hellhole/sludgestastion.lev",
  "hellhole/spikcavn.lev",
  "hellhole/tunnel2.lev",
  "hellhole/warloops.lev",
  "hellhole/warzone.lev",
  "hellhole/Bridge.lev",
  "hellhole/CHAOSI~T.LEV",
  "hellhole/Likwid.lev",
  "hellhole/BATTLEGR.LEV",
  "hellhole/SMB.lev",
  "hellhole/THE HUNTERS.lev",
  "hellhole/TOWER_2.LEV",
  "hellhole/Tomb.lev",
  "hellhole/baricade.lev",
  "hellhole/building_2.lev",
  "hellhole/circles.lev",
  "hellhole/lb_cmplx.lev",
  "hellhole/lb_infst.lev",
  "hellhole/lvl0005.lev",
  "hellhole/osamabase.lev",
  "hellhole/phobos.lev",
  "hellhole/qmark_1.lev",
  "hellhole/the cave.lev",
  "hellhole/tunnel2_1.lev",
  "hellhole/wormhole_1.lev",
  "hellhole/bloody.lev",
  "hellhole/Qrampage.lev"
]